<?xml version="1.0" encoding="utf-8"?>
<!-- Generator: Adobe Illustrator 21.0.2, SVG Export Plug-In . SVG Version: 6.00 Build 0)  -->
<svg version="1.1" id="Слой_1" xmlns="http://www.w3.org/2000/svg" xmlns:xlink="http://www.w3.org/1999/xlink" x="0px" y="0px"
	 width="16px" height="17px" viewBox="0 0 16 17" enable-background="new 0 0 16 17" xml:space="preserve">
<path d="M14.9,15.9V1.1H4.1c-0.3,0-0.5-0.2-0.5-0.5S3.8,0,4.1,0h11.4C15.8,0,16,0.2,16,0.5v15.9c0,0.3-0.2,0.5-0.5,0.5H4.1
	c-0.3,0-0.5-0.2-0.5-0.5s0.2-0.5,0.5-0.5H14.9z M9,8L6.6,5.6C6.4,5.4,6.4,5,6.6,4.8c0.2-0.2,0.5-0.2,0.8,0l3.3,3.3
	c0.2,0.2,0.2,0.6,0,0.8l-3.3,3.4c-0.2,0.2-0.5,0.2-0.8,0c-0.2-0.2-0.2-0.6,0-0.8L9,9H0.5C0.2,9,0,8.8,0,8.5C0,8.2,0.2,8,0.5,8H9z"/>
</svg>
